…
    ## ── Column specification ────────────────────────────────────────────────────────
    ## Delimiter: ","
    ## dbl  (8): prez_gop, gov_gop, sen_gop, rep_gop, prez_dem, gov_dem, sen_dem, r...
    ## date (1): mon

    ## 
    ## ℹ Use `spec()` to retrieve the full column specification for this data.
    ## ℹ Specify the column types or set `show_col_types = FALSE` to quiet this message.

``` r
pols_month
```

    ## # A tibble: 822 × 9
    ##    year  month     president gov_gop sen_gop rep_gop gov_dem sen_dem rep_dem
    ##    <chr> <chr>     <chr>       <dbl>   <dbl>   <dbl>   <dbl>   <dbl>   <dbl>
    ##  1 1947  January   dem            23      51     253      23      45     198
    ##  2 1947  February  dem            23      51     253      23      45     198
    ##  3 1947  March     dem            23      51     253      23      45     198
    ##  4 1947  April     dem            23      51     253      23      45     198
    ##  5 1947  May       dem            23      51     253      23      45     198
    ##  6 1947  June      dem            23      51     253      23      45     198
    ##  7 1947  July      dem            23      51     253      23      45     198
    ##  8 1947  August    dem            23      51     253      23      45     198
    ##  9 1947  September dem            23      51     253      23      45     198
    ## 10 1947  October   dem            23      51     253      23      45     198
    ## # … with 812 more rows
…
    ## ── Column specification ────────────────────────────────────────────────────────
    ## Delimiter: ","
    ## chr (1): date
    ## dbl (1): close

    ## 
    ## ℹ Use `spec()` to retrieve the full column specification for this data.
    ## ℹ Specify the column types or set `show_col_types = FALSE` to quiet this message.

``` r
snp_df
```

    ## # A tibble: 787 × 3
    ##    year  month    close
    ##    <chr> <chr>    <dbl>
    ##  1 2015  July     2080.
    ##  2 2015  June     2063.
    ##  3 2015  May      2107.
    ##  4 2015  April    2086.
    ##  5 2015  March    2068.
    ##  6 2015  February 2104.
    ##  7 2015  January  1995.
    ##  8 2014  December 2059.
    ##  9 2014  November 2068.
    ## 10 2014  October  2018.
    ## # … with 777 more rows
…
unemployment_df
```

    ## # A tibble: 810 × 3
    ##    year  month    unemployment
    ##    <chr> <chr>           <dbl>
    ##  1 2015  January           5.7
    ##  2 2015  February          5.5
    ##  3 2015  March             5.5
    ##  4 2015  April             5.4
    ##  5 2015  May               5.5
    ##  6 2015  June              5.3
    ##  7 2014  January           6.6
    ##  8 2014  February          6.7
    ##  9 2014  March             6.6
    ## 10 2014  April             6.2
    ## # … with 800 more rows
…
